screen_text/text.vcd
$date
	Thu May 23 21:36:46 2024
$end
$version
	Icarus Verilog
$end
$timescale
	1ns
$end
$scope module test $end
$var wire 1 ! sdin $end
$var wire 1 " sclk $end
$var wire 1 # reset $end
$var wire 1 $ dc $end
$var wire 1 % cs $end
$var reg 1 & clk $end
$var reg 1 ' sync $end
$scope module t $end
$var wire 1 & clk $end
$var wire 8 ( pixelData [7:0] $end
$var wire 10 ) pixelAddress [9:0] $end
$var wire 1 ! ioSdin $end
$var wire 1 " ioSclk $end
$var wire 1 # ioReset $end
$var wire 1 $ ioDc $end
$var wire 1 % ioCs $end
$var parameter 32 * STARTUP_WAIT $end
$scope module scr $end
$var wire 1 & clk $end
$var wire 1 % ioCs $end
$var wire 1 $ ioDc $end
$var wire 1 # ioReset $end
$var wire 1 " ioSclk $end
$var wire 1 ! ioSdin $end
$var wire 8 + pixelData [7:0] $end
$var wire 10 , pixelAddress [9:0] $end
$var parameter 32 - SETUP_INSTRUCTIONS $end
$var parameter 32 . STARTUP_WAIT $end
$var parameter 8 / STATE_CHECK_FINISHED_INIT $end
$var parameter 8 0 STATE_INIT_POWER $end
$var parameter 8 1 STATE_LOAD_DATA $end
$var parameter 8 2 STATE_LOAD_INIT_CMD $end
$var parameter 8 3 STATE_SEND $end
$var reg 4 4 bitNumber [3:0] $end
$var reg 8 5 commandIndex [7:0] $end
$var reg 33 6 counter [32:0] $end
$var reg 1 7 cs $end
$var reg 8 8 dataToSend [7:0] $end
$var reg 1 9 dc $end
$var reg 10 : pixelCounter [9:0] $end
$var reg 1 ; reset $end
$var reg 1 < sclk $end
$var reg 1 = sdin $end
$var reg 184 > startupCommands [183:0] $end
$var reg 3 ? state [2:0] $end
$upscope $end
$scope module te $end
$var wire 1 & clk $end
$var wire 10 @ pixelAddress [9:0] $end
$var wire 8 A pixelData [7:0] $end
$var wire 1 B topRow $end
$var wire 3 C columnAddress [2:0] $end
$var wire 8 D chosenChar [7:0] $end
$var wire 8 E charOutput4 [7:0] $end
$var wire 8 F charOutput3 [7:0] $end
$var wire 8 G charOutput2 [7:0] $end
$var wire 8 H charOutput1 [7:0] $end
$var wire 8 I charOutput [7:0] $end
$var wire 6 J charAddress [5:0] $end
$var reg 8 K outputBuffer [7:0] $end
$scope module t1 $end
$var wire 1 & clk $end
$var wire 8 L outByte [7:0] $end
$var wire 8 M readAddress [7:0] $end
$var parameter 6 N ADDRESS_OFFSET $end
$var integer 32 O i [31:0] $end
$upscope $end
$scope module t2 $end
$var wire 1 & clk $end
$var wire 8 P outByte [7:0] $end
$var wire 8 Q readAddress [7:0] $end
$var parameter 6 R ADDRESS_OFFSET $end
$var integer 32 S i [31:0] $end
$upscope $end
$scope module t3 $end
$var wire 1 & clk $end
$var wire 8 T outByte [7:0] $end
$var wire 8 U readAddress [7:0] $end
$var parameter 6 V ADDRESS_OFFSET $end
$var integer 32 W i [31:0] $end
$upscope $end
$scope module t4 $end
$var wire 1 & clk $end
$var wire 8 X outByte [7:0] $end
$var wire 8 Y readAddress [7:0] $end
$var parameter 6 Z ADDRESS_OFFSET $end
$var integer 32 [ i [31:0] $end
$upscope $end
$upscope $end
$upscope $end
$upscope $end
$enddefinitions $end
$comment Show the parameter values. $end
$dumpall
b110000 Z
b100000 V
b10000 R
b0 N
b10 3
b1 2
b100 1
b0 0
b11 /
b1010 .
b10111 -
b1010 *
$end
#0
$dumpvars
b1111 [
b0 Y
bx X
b1111 W
b0 U
bx T
b1111 S
b0 Q
bx P
b1111 O
b0 M
b1001000 L
bx K
b0 J
b1001000 I
b1001000 H
bx G
bx F
bx E
b1001000 D
b0 C
1B
bx A
b0 @
b0 ?
b1010111010000001011111111010011000100000000000001100100001000000101000011010100000111111110100110000000011010101100000001101100100100010110110110010000010001101000101001010010010101111 >
0=
1<
1;
b0 :
19
b0 8
07
b0 6
b10111000 5
b0 4
b0 ,
bx +
b0 )
bx (
0'
0&
0%
1$
1#
1"
0!
$end
#1
b1 6
b0 (
b0 +
b0 A
b0 K
1&
#2
0&
#3
b10 6
1&
#4
0&
#5
b11 6
1&
#6
0&
#7
b100 6
1&
#8
0&
#9
b101 6
1&
#10
0&
#11
b110 6
1&
#12
0&
#13
b111 6
1&
#14
0&
#15
b1000 6
1&
#16
0&
#17
b1001 6
1&
#18
0&
#19
b1010 6
1&
#20
0&
#21
b1011 6
1&
#22
0&
#23
b1100 6
1&
#24
0&
#25
b1101 6
1&
#26
0&
#27
b1110 6
1&
#28
0&
#29
b1111 6
1&
#30
0&
#31
b10000 6
1&
#32
0&
#33
b10001 6
1&
#34
0&
#35
b10010 6
1&
#36
0&
#37
b10011 6
1&
#38
0&
#39
b10100 6
1&
#40
0&
#41
0#
0;
b10101 6
1&
#42
0&
#43
b10110 6
1&
#44
0&
#45
b10111 6
1&
#46
0&
#47
b11000 6
1&
#48
0&
#49
b11001 6
1&
#50
0&
#51
b11010 6
1&
#52
0&
#53
b11011 6
1&
#54
0&
#55
b11100 6
1&
#56
0&
#57
b11101 6
1&
#58
0&
#59
b11110 6
1&
#60
0&
#61
1#
1;
b11111 6
1&
#62
0&
#63
b100000 6
1&
#64
0&
#65
b100001 6
1&
#66
0&
#67
b100010 6
1&
#68
0&
#69
b100011 6
1&
#70
0&
#71
b100100 6
1&
#72
0&
#73
b100101 6
1&
#74
0&
#75
b100110 6
1&
#76
0&
#77
b100111 6
1&
#78
0&
#79
b101000 6
1&
#80
0&
#81
b1 ?
b0 6
1&
#82
0&
#83
b10110000 5
b111 4
b10 ?
b10101110 8
0$
09
1&
#84
0&
#85
b1 6
1!
1=
0"
0<
1&
#86
0&
#87
b110 4
1"
1<
b0 6
1&
#88
0&
#89
b1 6
0!
0=
0"
0<
1&
#90
0&
#91
b101 4
1"
1<
b0 6
1&
#92
0&
#93
b1 6
1!
1=
0"
0<
1&
#94
0&
#95
b100 4
1"
1<
b0 6
1&
#96
0&
#97
b1 6
0!
0=
0"
0<
1&
#98
0&
#99
b11 4
1"
1<
b0 6
1&
#100
0&
#101
b1 6
1!
1=
0"
0<
1&
#102
0&
#103
b10 4
1"
1<
b0 6
1&
#104
0&
#105
b1 6
0"
0<
1&
#106
0&
#107
b1 4
1"
1<
b0 6
1&
#108
0&
#109
b1 6
0"
0<
1&
#110
0&
#111
b0 4
1"
1<
b0 6
1&
#112
0&
#113
b1 6
0!
0=
0"
0<
1&
#114
0&
#115
b11 ?
1"
1<
b0 6
1&
#116
0&
#117
b1 ?
1%
17
1&
#118
0&
#119
b10101000 5
0%
07
b111 4
b10 ?
b10000001 8
1&
#120
0&
#121
b1 6
1!
1=
0"
0<
1&
#122
0&
#123
b110 4
1"
1<
b0 6
1&
#124
0&
#125
b1 6
0!
0=
0"
0<
1&
#126
0&
#127
b101 4
1"
1<
b0 6
1&
#128
0&
#129
b1 6
0"
0<
1&
#130
0&
#131
b100 4
1"
1<
b0 6
1&
#132
0&
#133
b1 6
0"
0<
1&
#134
0&
#135
b11 4
1"
1<
b0 6
1&
#136
0&
#137
b1 6
0"
0<
1&
#138
0&
#139
b10 4
1"
1<
b0 6
1&
#140
0&
#141
b1 6
0"
0<
1&
#142
0&
#143
b1 4
1"
1<
b0 6
1&
#144
0&
#145
b1 6
0"
0<
1&
#146
0&
#147
b0 4
1"
1<
b0 6
1&
#148
0&
#149
b1 6
1!
1=
0"
0<
1&
#150
0&
#151
b11 ?
1"
1<
b0 6
1&
#152
0&
#153
b1 ?
1%
17
1&
#154
0&
#155
b10100000 5
0%
07
b111 4
b10 ?
b1111111 8
1&
#156
0&
#157
b1 6
0!
0=
0"
0<
1&
#158
0&
#159
b110 4
1"
1<
b0 6
1&
#160
0&
#161
b1 6
1!
1=
0"
0<
1&
#162
0&
#163
b101 4
1"
1<
b0 6
1&
#164
0&
#165
b1 6
0"
0<
1&
#166
0&
#167
b100 4
1"
1<
b0 6
1&
#168
0&
#169
b1 6
0"
0<
1&
#170
0&
#171
b11 4
1"
1<
b0 6
1&
#172
0&
#173
b1 6
0"
0<
1&
#174
0&
#175
b10 4
1"
1<
b0 6
1&
#176
0&
#177
b1 6
0"
0<
1&
#178
0&
#179
b1 4
1"
1<
b0 6
1&
#180
0&
#181
b1 6
0"
0<
1&
#182
0&
#183
b0 4
1"
1<
b0 6
1&
#184
0&
#185
b1 6
0"
0<
1&
#186
0&
#187
b11 ?
1"
1<
b0 6
1&
#188
0&
#189
b1 ?
1%
17
1&
#190
0&
#191
b10011000 5
0%
07
b111 4
b10 ?
b10100110 8
1&
#192
0&
#193
b1 6
0"
0<
1&
#194
0&
#195
b110 4
1"
1<
b0 6
1&
#196
0&
#197
b1 6
0!
0=
0"
0<
1&
#198
0&
#199
b101 4
1"
1<
b0 6
1&
#200
0&
#201
b1 6
1!
1=
0"
0<
1&
#202
0&
#203
b100 4
1"
1<
b0 6
1&
#204
0&
#205
b1 6
0!
0=
0"
0<
1&
#206
0&
#207
b11 4
1"
1<
b0 6
1&
#208
0&
#209
b1 6
0"
0<
1&
#210
0&
#211
b10 4
1"
1<
b0 6
1&
#212
0&
#213
b1 6
1!
1=
0"
0<
1&
#214
0&
#215
b1 4
1"
1<
b0 6
1&
#216
0&
#217
b1 6
0"
0<
1&
#218
0&
#219
b0 4
1"
1<
b0 6
1&
#220
0&
#221
b1 6
0!
0=
0"
0<
1&
#222
0&
#223
b11 ?
1"
1<
b0 6
1&
#224
0&
#225
b1 ?
1%
17
1&
#226
0&
#227
b10010000 5
0%
07
b111 4
b10 ?
b100000 8
1&
#228
0&
#229
b1 6
0"
0<
1&
#230
0&
#231
b110 4
1"
1<
b0 6
1&
#232
0&
#233
b1 6
0"
0<
1&
#234
0&
#235
b101 4
1"
1<
b0 6
1&
#236
0&
#237
b1 6
1!
1=
0"
0<
1&
#238
0&
#239
b100 4
1"
1<
b0 6
1&
#240
0&
#241
b1 6
0!
0=
0"
0<
1&
#242
0&
#243
b11 4
1"
1<
b0 6
1&
#244
0&
#245
b1 6
0"
0<
1&
#246
0&
#247
b10 4
1"
1<
b0 6
1&
#248
0&
#249
b1 6
0"
0<
1&
#250
0&
#251
b1 4
1"
1<
b0 6
1&
#252
0&
#253
b1 6
0"
0<
1&
#254
0&
#255
b0 4
1"
1<
b0 6
1&
#256
0&
#257
b1 6
0"
0<
1&
#258
0&
#259
b11 ?
1"
1<
b0 6
1&
#260
0&
#261
b1 ?
1%
17
1&
#262
0&
#263
b10001000 5
0%
07
b111 4
b10 ?
b0 8
1&
#264
0&
#265
b1 6
0"
0<
1&
#266
0&
#267
b110 4
1"
1<
b0 6
1&
#268
0&
#269
b1 6
0"
0<
1&
#270
0&
#271
b101 4
1"
1<
b0 6
1&
#272
0&
#273
b1 6
0"
0<
1&
#274
0&
#275
b100 4
1"
1<
b0 6
1&
#276
0&
#277
b1 6
0"
0<
1&
#278
0&
#279
b11 4
1"
1<
b0 6
1&
#280
0&
#281
b1 6
0"
0<
1&
#282
0&
#283
b10 4
1"
1<
b0 6
1&
#284
0&
#285
b1 6
0"
0<
1&
#286
0&
#287
b1 4
1"
1<
b0 6
1&
#288
0&
#289
b1 6
0"
0<
1&
#290
0&
#291
b0 4
1"
1<
b0 6
1&
#292
0&
#293
b1 6
0"
0<
1&
#294
0&
#295
b11 ?
1"
1<
b0 6
1&
#296
0&
#297
b1 ?
1%
17
1&
#298
0&
#299
b10000000 5
0%
07
b111 4
b10 ?
b11001000 8
1&
#300
0&
#301
b1 6
1!
1=
0"
0<
1&
#302
0&
#303
b110 4
1"
1<
b0 6
1&
#304
0&
#305
b1 6
0"
0<
1&
#306
0&
#307
b101 4
1"
1<
b0 6
1&
#308
0&
#309
b1 6
0!
0=
0"
0<
1&
#310
0&
#311
b100 4
1"
1<
b0 6
1&
#312
0&
#313
b1 6
0"
0<
1&
#314
0&
#315
b11 4
1"
1<
b0 6
1&
#316
0&
#317
b1 6
1!
1=
0"
0<
1&
#318
0&
#319
b10 4
1"
1<
b0 6
1&
#320
0&
#321
b1 6
0!
0=
0"
0<
1&
#322
0&
#323
b1 4
1"
1<
b0 6
1&
#324
0&
#325
b1 6
0"
0<
1&
#326
0&
#327
b0 4
1"
1<
b0 6
1&
#328
0&
#329
b1 6
0"
0<
1&
#330
0&
#331
b11 ?
1"
1<
b0 6
1&
#332
0&
#333
b1 ?
1%
17
1&
#334
0&
#335
b1111000 5
0%
07
b111 4
b10 ?
b1000000 8
1&
#336
0&
#337
b1 6
0"
0<
1&
#338
0&
#339
b110 4
1"
1<
b0 6
1&
#340
0&
#341
b1 6
1!
1=
0"
0<
1&
#342
0&
#343
b101 4
1"
1<
b0 6
1&
#344
0&
#345
b1 6
0!
0=
0"
0<
1&
#346
0&
#347
b100 4
1"
1<
b0 6
1&
#348
0&
#349
b1 6
0"
0<
1&
#350
0&
#351
b11 4
1"
1<
b0 6
1&
#352
0&
#353
b1 6
0"
0<
1&
#354
0&
#355
b10 4
1"
1<
b0 6
1&
#356
0&
#357
b1 6
0"
0<
1&
#358
0&
#359
b1 4
1"
1<
b0 6
1&
#360
0&
#361
b1 6
0"
0<
1&
#362
0&
#363
b0 4
1"
1<
b0 6
1&
#364
0&
#365
b1 6
0"
0<
1&
#366
0&
#367
b11 ?
1"
1<
b0 6
1&
#368
0&
#369
b1 ?
1%
17
1&
#370
0&
#371
b1110000 5
0%
07
b111 4
b10 ?
b10100001 8
1&
#372
0&
#373
b1 6
1!
1=
0"
0<
1&
#374
0&
#375
b110 4
1"
1<
b0 6
1&
#376
0&
#377
b1 6
0!
0=
0"
0<
1&
#378
0&
#379
b101 4
1"
1<
b0 6
1&
#380
0&
#381
b1 6
1!
1=
0"
0<
1&
#382
0&
#383
b100 4
1"
1<
b0 6
1&
#384
0&
#385
b1 6
0!
0=
0"
0<
1&
#386
0&
#387
b11 4
1"
1<
b0 6
1&
#388
0&
#389
b1 6
0"
0<
1&
#390
0&
#391
b10 4
1"
1<
b0 6
1&
#392
0&
#393
b1 6
0"
0<
1&
#394
0&
#395
b1 4
1"
1<
b0 6
1&
#396
0&
#397
b1 6
0"
0<
1&
#398
0&
#399
b0 4
1"
1<
b0 6
1&
#400
0&
#401
b1 6
1!
1=
0"
0<
1&
#402
0&
#403
b11 ?
1"
1<
b0 6
1&
#404
0&
#405
b1 ?
1%
17
1&
#406
0&
#407
b1101000 5
0%
07
b111 4
b10 ?
b10101000 8
1&
#408
0&
#409
b1 6
0"
0<
1&
#410
0&
#411
b110 4
1"
1<
b0 6
1&
#412
0&
#413
b1 6
0!
0=
0"
0<
1&
#414
0&
#415
b101 4
1"
1<
b0 6
1&
#416
0&
#417
b1 6
1!
1=
0"
0<
1&
#418
0&
#419
b100 4
1"
1<
b0 6
1&
#420
0&
#421
b1 6
0!
0=
0"
0<
1&
#422
0&
#423
b11 4
1"
1<
b0 6
1&
#424
0&
#425
b1 6
1!
1=
0"
0<
1&
#426
0&
#427
b10 4
1"
1<
b0 6
1&
#428
0&
#429
b1 6
0!
0=
0"
0<
1&
#430
0&
#431
b1 4
1"
1<
b0 6
1&
#432
0&
#433
b1 6
0"
0<
1&
#434
0&
#435
b0 4
1"
1<
b0 6
1&
#436
0&
#437
b1 6
0"
0<
1&
#438
0&
#439
b11 ?
1"
1<
b0 6
1&
#440
0&
#441
b1 ?
1%
17
1&
#442
0&
#443
b1100000 5
0%
07
b111 4
b10 ?
b111111 8
1&
#444
0&
#445
b1 6
0"
0<
1&
#446
0&
#447
b110 4
1"
1<
b0 6
1&
#448
0&
#449
b1 6
0"
0<
1&
#450
0&
#451
b101 4
1"
1<
b0 6
1&
#452
0&
#453
b1 6
1!
1=
0"
0<
1&
#454
0&
#455
b100 4
1"
1<
b0 6
1&
#456
0&
#457
b1 6
0"
0<
1&
#458
0&
#459
b11 4
1"
1<
b0 6
1&
#460
0&
#461
b1 6
0"
0<
1&
#462
0&
#463
b10 4
1"
1<
b0 6
1&
#464
0&
#465
b1 6
0"
0<
1&
#466
0&
#467
b1 4
1"
1<
b0 6
1&
#468
0&
#469
b1 6
0"
0<
1&
#470
0&
#471
b0 4
1"
1<
b0 6
1&
#472
0&
#473
b1 6
0"
0<
1&
#474
0&
#475
b11 ?
1"
1<
b0 6
1&
#476
0&
#477
b1 ?
1%
17
1&
#478
0&
#479
b1011000 5
0%
07
b111 4
b10 ?
b11010011 8
1&
#480
0&
#481
b1 6
0"
0<
1&
#482
0&
#483
b110 4
1"
1<
b0 6
1&
#484
0&
#485
b1 6
0"
0<
1&
#486
0&
#487
b101 4
1"
1<
b0 6
1&
#488
0&
#489
b1 6
0!
0=
0"
0<
1&
#490
0&
#491
b100 4
1"
1<
b0 6
1&
#492
0&
#493
b1 6
1!
1=
0"
0<
1&
#494
0&
#495
b11 4
1"
1<
b0 6
1&
#496
0&
#497
b1 6
0!
0=
0"
0<
1&
#498
0&
#499
b10 4
1"
1<
b0 6
1&
#500
0&
#501
b1 6
0"
0<
1&
#502
0&
#503
b1 4
1"
1<
b0 6
1&
#504
0&
#505
b1 6
1!
1=
0"
0<
1&
#506
0&
#507
b0 4
1"
1<
b0 6
1&
#508
0&
#509
b1 6
0"
0<
1&
#510
0&
#511
b11 ?
1"
1<
b0 6
1&
#512
0&
#513
b1 ?
1%
17
1&
#514
0&
#515
b1010000 5
0%
07
b111 4
b10 ?
b0 8
1&
#516
0&
#517
b1 6
0!
0=
0"
0<
1&
#518
0&
#519
b110 4
1"
1<
b0 6
1&
#520
0&
#521
b1 6
0"
0<
1&
#522
0&
#523
b101 4
1"
1<
b0 6
1&
#524
0&
#525
b1 6
0"
0<
1&
#526
0&
#527
b100 4
1"
1<
b0 6
1&
#528
0&
#529
b1 6
0"
0<
1&
#530
0&
#531
b11 4
1"
1<
b0 6
1&
#532
0&
#533
b1 6
0"
0<
1&
#534
0&
#535
b10 4
1"
1<
b0 6
1&
#536
0&
#537
b1 6
0"
0<
1&
#538
0&
#539
b1 4
1"
1<
b0 6
1&
#540
0&
#541
b1 6
0"
0<
1&
#542
0&
#543
b0 4
1"
1<
b0 6
1&
#544
0&
#545
b1 6
0"
0<
1&
#546
0&
#547
b11 ?
1"
1<
b0 6
1&
#548
0&
#549
b1 ?
1%
17
1&
#550
0&
#551
b1001000 5
0%
07
b111 4
b10 ?
b11010101 8
1&
#552
0&
#553
b1 6
1!
1=
0"
0<
1&
#554
0&
#555
b110 4
1"
1<
b0 6
1&
#556
0&
#557
b1 6
0"
0<
1&
#558
0&
#559
b101 4
1"
1<
b0 6
1&
#560
0&
#561
b1 6
0!
0=
0"
0<
1&
#562
0&
#563
b100 4
1"
1<
b0 6
1&
#564
0&
#565
b1 6
1!
1=
0"
0<
1&
#566
0&
#567
b11 4
1"
1<
b0 6
1&
#568
0&
#569
b1 6
0!
0=
0"
0<
1&
#570
0&
#571
b10 4
1"
1<
b0 6
1&
#572
0&
#573
b1 6
1!
1=
0"
0<
1&
#574
0&
#575
b1 4
1"
1<
b0 6
1&
#576
0&
#577
b1 6
0!
0=
0"
0<
1&
#578
0&
#579
b0 4
1"
1<
b0 6
1&
#580
0&
#581
b1 6
1!
1=
0"
0<
1&
#582
0&
#583
b11 ?
1"
1<
b0 6
1&
#584
0&
#585
b1 ?
1%
17
1&
#586
0&
#587
b1000000 5
0%
07
b111 4
b10 ?
b10000000 8
1&
#588
0&
#589
b1 6
0"
0<
1&
#590
0&
#591
b110 4
1"
1<
b0 6
1&
#592
0&
#593
b1 6
0!
0=
0"
0<
1&
#594
0&
#595
b101 4
1"
1<
b0 6
1&
#596
0&
#597
b1 6
0"
0<
1&
#598
0&
#599
b100 4
1"
1<
b0 6
1&
#600
0&
#601
b1 6
0"
0<
1&
#602
0&
#603
b11 4
1"
1<
b0 6
1&
#604
0&
#605
b1 6
0"
0<
1&
#606
0&
#607
b10 4
1"
1<
b0 6
1&
#608
0&
#609
b1 6
0"
0<
1&
#610
0&
#611
b1 4
1"
1<
b0 6
1&
#612
0&
#613
b1 6
0"
0<
1&
#614
0&
#615
b0 4
1"
1<
b0 6
1&
#616
0&
#617
b1 6
0"
0<
1&
#618
0&
#619
b11 ?
1"
1<
b0 6
1&
#620
0&
#621
b1 ?
1%
17
1&
#622
0&
#623
b111000 5
0%
07
b111 4
b10 ?
b11011001 8
1&
#624
0&
#625
b1 6
1!
1=
0"
0<
1&
#626
0&
#627
b110 4
1"
1<
b0 6
1&
#628
0&
#629
b1 6
0"
0<
1&
#630
0&
#631
b101 4
1"
1<
b0 6
1&
#632
0&
#633
b1 6
0!
0=
0"
0<
1&
#634
0&
#635
b100 4
1"
1<
b0 6
1&
#636
0&
#637
b1 6
1!
1=
0"
0<
1&
#638
0&
#639
b11 4
1"
1<
b0 6
1&
#640
0&
#641
b1 6
0"
0<
1&
#642
0&
#643
b10 4
1"
1<
b0 6
1&
#644
0&
#645
b1 6
0!
0=
0"
0<
1&
#646
0&
#647
b1 4
1"
1<
b0 6
1&
#648
0&
#649
b1 6
0"
0<
1&
#650
0&
#651
b0 4
1"
1<
b0 6
1&
#652
0&
#653
b1 6
1!
1=
0"
0<
1&
#654
0&
#655
b11 ?
1"
1<
b0 6
1&
#656
0&
#657
b1 ?
1%
17
1&
#658
0&
#659
b110000 5
0%
07
b111 4
b10 ?
b100010 8
1&
#660
0&
#661
b1 6
0!
0=
0"
0<
1&
#662
0&
#663
b110 4
1"
1<
b0 6
1&
#664
0&
#665
b1 6
0"
0<
1&
#666
0&
#667
b101 4
1"
1<
b0 6
1&
#668
0&
#669
b1 6
1!
1=
0"
0<
1&
#670
0&
#671
b100 4
1"
1<
b0 6
1&
#672
0&
#673
b1 6
0!
0=
0"
0<
1&
#674
0&
#675
b11 4
1"
1<
b0 6
1&
#676
0&
#677
b1 6
0"
0<
1&
#678
0&
#679
b10 4
1"
1<
b0 6
1&
#680
0&
#681
b1 6
0"
0<
1&
#682
0&
#683
b1 4
1"
1<
b0 6
1&
#684
0&
#685
b1 6
1!
1=
0"
0<
1&
#686
0&
#687
b0 4
1"
1<
b0 6
1&
#688
0&
#689
b1 6
0!
0=
0"
0<
1&
#690
0&
#691
b11 ?
1"
1<
b0 6
1&
#692
0&
#693
b1 ?
1%
17
1&
#694
0&
#695
b101000 5
0%
07
b111 4
b10 ?
b11011011 8
1&
#696
0&
#697
b1 6
1!
1=
0"
0<
1&
#698
0&
#699
b110 4
1"
1<
b0 6
1&
#700
0&
#701
b1 6
0"
0<
1&
#702
0&
#703
b101 4
1"
1<
b0 6
1&
#704
0&
#705
b1 6
0!
0=
0"
0<
1&
#706
0&
#707
b100 4
1"
1<
b0 6
1&
#708
0&
#709
b1 6
1!
1=
0"
0<
1&
#710
0&
#711
b11 4
1"
1<
b0 6
1&
#712
0&
#713
b1 6
0"
0<
1&
#714
0&
#715
b10 4
1"
1<
b0 6
1&
#716
0&
#717
b1 6
0!
0=
0"
0<
1&
#718
0&
#719
b1 4
1"
1<
b0 6
1&
#720
0&
#721
b1 6
1!
1=
0"
0<
1&
#722
0&
#723
b0 4
1"
1<
b0 6
1&
#724
0&
#725
b1 6
0"
0<
1&
#726
0&
#727
b11 ?
1"
1<
b0 6
1&
#728
0&
#729
b1 ?
1%
17
1&
#730
0&
#731
b100000 5
0%
07
b111 4
b10 ?
b100000 8
1&
#732
0&
#733
b1 6
0!
0=
0"
0<
1&
#734
0&
#735
b110 4
1"
1<
b0 6
1&
#736
0&
#737
b1 6
0"
0<
1&
#738
0&
#739
b101 4
1"
1<
b0 6
1&
#740
0&
#741
b1 6
1!
1=
0"
0<
1&
#742
0&
#743
b100 4
1"
1<
b0 6
1&
#744
0&
#745
b1 6
0!
0=
0"
0<
1&
#746
0&
#747
b11 4
1"
1<
b0 6
1&
#748
0&
#749
b1 6
0"
0<
1&
#750
0&
#751
b10 4
1"
1<
b0 6
1&
#752
0&
#753
b1 6
0"
0<
1&
#754
0&
#755
b1 4
1"
1<
b0 6
1&
#756
0&
#757
b1 6
0"
0<
1&
#758
0&
#759
b0 4
1"
1<
b0 6
1&
#760
0&
#761
b1 6
0"
0<
1&
#762
0&
#763
b11 ?
1"
1<
b0 6
1&
#764
0&
#765
b1 ?
1%
17
1&
#766
0&
#767
b11000 5
0%
07
b111 4
b10 ?
b10001101 8
1&
#768
0&
#769
b1 6
1!
1=
0"
0<
1&
#770
0&
#771
b110 4
1"
1<
b0 6
1&
#772
0&
#773
b1 6
0!
0=
0"
0<
1&
#774
0&
#775
b101 4
1"
1<
b0 6
1&
#776
0&
#777
b1 6
0"
0<
1&
#778
0&
#779
b100 4
1"
1<
b0 6
1&
#780
0&
#781
b1 6
0"
0<
1&
#782
0&
#783
b11 4
1"
1<
b0 6
1&
#784
0&
#785
b1 6
1!
1=
0"
0<
1&
#786
0&
#787
b10 4
1"
1<
b0 6
1&
#788
0&
#789
b1 6
0"
0<
1&
#790
0&
#791
b1 4
1"
1<
b0 6
1&
#792
0&
#793
b1 6
0!
0=
0"
0<
1&
#794
0&
#795
b0 4
1"
1<
b0 6
1&
#796
0&
#797
b1 6
1!
1=
0"
0<
1&
#798
0&
#799
b11 ?
1"
1<
b0 6
1&
#800
0&
#801
b1 ?
1%
17
1&
#802
0&
#803
b10000 5
0%
07
b111 4
b10 ?
b10100 8
1&
#804
0&
#805
b1 6
0!
0=
0"
0<
1&
#806
0&
#807
b110 4
1"
1<
b0 6
1&
#808
0&
#809
b1 6
0"
0<
1&
#810
0&
#811
b101 4
1"
1<
b0 6
1&
#812
0&
#813
b1 6
0"
0<
1&
#814
0&
#815
b100 4
1"
1<
b0 6
1&
#816
0&
#817
b1 6
1!
1=
0"
0<
1&
#818
0&
#819
b11 4
1"
1<
b0 6
1&
#820
0&
#821
b1 6
0!
0=
0"
0<
1&
#822
0&
#823
b10 4
1"
1<
b0 6
1&
#824
0&
#825
b1 6
1!
1=
0"
0<
1&
#826
0&
#827
b1 4
1"
1<
b0 6
1&
#828
0&
#829
b1 6
0!
0=
0"
0<
1&
#830
0&
#831
b0 4
1"
1<
b0 6
1&
#832
0&
#833
b1 6
0"
0<
1&
#834
0&
#835
b11 ?
1"
1<
b0 6
1&
#836
0&
#837
b1 ?
1%
17
1&
#838
0&
#839
b1000 5
0%
07
b111 4
b10 ?
b10100100 8
1&
#840
0&
#841
b1 6
1!
1=
0"
0<
1&
#842
0&
#843
b110 4
1"
1<
b0 6
1&
#844
0&
#845
b1 6
0!
0=
0"
0<
1&
#846
0&
#847
b101 4
1"
1<
b0 6
1&
#848
0&
#849
b1 6
1!
1=
0"
0<
1&
#850
0&
#851
b100 4
1"
1<
b0 6
1&
#852
0&
#853
b1 6
0!
0=
0"
0<
1&
#854
0&
#855
b11 4
1"
1<
b0 6
1&
#856
0&
#857
b1 6
0"
0<
1&
#858
0&
#859
b10 4
1"
1<
b0 6
1&
#860
0&
#861
b1 6
1!
1=
0"
0<
1&
#862
0&
#863
b1 4
1"
1<
b0 6
1&
#864
0&
#865
b1 6
0!
0=
0"
0<
1&
#866
0&
#867
b0 4
1"
1<
b0 6
1&
#868
0&
#869
b1 6
0"
0<
1&
#870
0&
#871
b11 ?
1"
1<
b0 6
1&
#872
0&
#873
b1 ?
1%
17
1&
#874
0&
#875
b0 5
0%
07
b111 4
b10 ?
b10101111 8
1&
#876
0&
#877
b1 6
1!
1=
0"
0<
1&
#878
0&
#879
b110 4
1"
1<
b0 6
1&
#880
0&
#881
b1 6
0!
0=
0"
0<
1&
#882
0&
#883
b101 4
1"
1<
b0 6
1&
#884
0&
#885
b1 6
1!
1=
0"
0<
1&
#886
0&
#887
b100 4
1"
1<
b0 6
1&
#888
0&
#889
b1 6
0!
0=
0"
0<
1&
#890
0&
#891
b11 4
1"
1<
b0 6
1&
#892
0&
#893
b1 6
1!
1=
0"
0<
1&
#894
0&
#895
b10 4
1"
1<
b0 6
1&
#896
0&
#897
b1 6
0"
0<
1&
#898
0&
#899
b1 4
1"
1<
b0 6
1&
#900
0&
#901
b1 6
0"
0<
1&
#902
0&
#903
b0 4
1"
1<
b0 6
1&
#904
0&
#905
b1 6
0"
0<
1&
#906
0&
#907
b11 ?
1"
1<
b0 6
1&
#908
0&
#909
b100 ?
1%
17
1&
#910
0&
#911
b1 C
b0 8
b10 ?
b111 4
1$
19
0%
07
b1 )
b1 ,
b1 :
b1 @
1&
#912
0&
#913
b1 6
0!
0=
0"
0<
1&
#914
0&
#915
b110 4
1"
1<
b0 6
1&
#916
0&
#917
b1 6
0"
0<
1&
#918
0&
#919
b101 4
1"
1<
b0 6
1&
#920
0&
#921
b1 6
0"
0<
1&
#922
0&
#923
b100 4
1"
1<
b0 6
1&
#924
0&
#925
b1 6
0"
0<
1&
#926
0&
#927
b11 4
1"
1<
b0 6
1&
#928
0&
#929
b1 6
0"
0<
1&
#930
0&
#931
b10 4
1"
1<
b0 6
1&
#932
0&
#933
b1 6
0"
0<
1&
#934
0&
#935
b1 4
1"
1<
b0 6
1&
#936
0&
#937
b1 6
0"
0<
1&
#938
0&
#939
b0 4
1"
1<
b0 6
1&
#940
0&
#941
b1 6
0"
0<
1&
#942
0&
#943
b11 ?
1"
1<
b0 6
1&
#944
0&
#945
b100 ?
1%
17
1&
#946
0&
#947
b10 C
b10 ?
b111 4
0%
07
b10 )
b10 ,
b10 :
b10 @
1&
#948
0&
#949
b1 6
0"
0<
b11100000 (
b11100000 +
b11100000 A
b11100000 K
1&
#950
0&
#951
b110 4
1"
1<
b0 6
1&
#952
0&
#953
b1 6
0"
0<
1&
#954
0&
#955
b101 4
1"
1<
b0 6
1&
#956
0&
#957
b1 6
0"
0<
1&
#958
0&
#959
b100 4
1"
1<
b0 6
1&
#960
0&
#961
b1 6
0"
0<
1&
#962
0&
#963
b11 4
1"
1<
b0 6
1&
#964
0&
#965
b1 6
0"
0<
1&
#966
0&
