arbiter/controller.vcd
$date
	Fri Aug  2 16:11:16 2024
$end
$version
	Icarus Verilog
$end
$timescale
	1s
$end
$scope module test $end
$var wire 1 ! readWrite $end
$var wire 3 " grantedAccess [2:0] $end
$var wire 1 # enabled $end
$var wire 32 $ dataToMem [31:0] $end
$var wire 8 % address [7:0] $end
$var reg 8 & addr1 [7:0] $end
$var reg 8 ' addr2 [7:0] $end
$var reg 8 ( addr3 [7:0] $end
$var reg 1 ) clk $end
$var reg 2 * counter [1:0] $end
$var reg 32 + dataToMem1 [31:0] $end
$var reg 32 , dataToMem2 [31:0] $end
$var reg 32 - dataToMem3 [31:0] $end
$var reg 1 . req1 $end
$var reg 1 / req2 $end
$var reg 1 0 req3 $end
$scope module fc $end
$var wire 8 1 addr1 [7:0] $end
$var wire 8 2 addr2 [7:0] $end
$var wire 8 3 addr3 [7:0] $end
$var wire 1 ) clk $end
$var wire 32 4 dataToMem1 [31:0] $end
$var wire 32 5 dataToMem2 [31:0] $end
$var wire 32 6 dataToMem3 [31:0] $end
$var wire 1 # enabled $end
$var wire 1 7 readWrite1 $end
$var wire 1 8 readWrite2 $end
$var wire 1 9 readWrite3 $end
$var wire 3 : requestingMemory [2:0] $end
$var wire 3 ; requestsNotInQueue [2:0] $end
$var wire 1 ! readWrite $end
$var wire 3 < nextInLine [2:0] $end
$var wire 32 = dataToMem [31:0] $end
$var wire 8 > address [7:0] $end
$var reg 3 ? currentlyInQueue [2:0] $end
$var reg 3 @ grantedAccess [2:0] $end
$var reg 12 A queue [11:0] $end
$var reg 2 B queueCurrIndex [1:0] $end
$var reg 2 C queueNextIndex [1:0] $end
$upscope $end
$upscope $end
$enddefinitions $end
$comment Show the parameter values. $end
$dumpall
$end
#0
$dumpvars
b0 C
b0 B
b0 A
b0 @
b0 ?
b0 >
b0 =
b1 <
b111 ;
b111 :
09
18
07
b11010011 6
b11010010 5
b11010001 4
b10100011 3
b10100010 2
b10100001 1
10
1/
1.
b11010011 -
b11010010 ,
b11010001 +
b0 *
0)
b10100011 (
b10100010 '
b10100001 &
b0 %
b0 $
0#
b0 "
0!
$end
#1
b10 <
b110 ;
b1 C
b1 ?
b1 A
1)
#2
0)
#3
b100 <
1#
b10100001 %
b10100001 >
b11010001 $
b11010001 =
b100 ;
b1 "
b1 @
b10 C
b11 ?
b10001 A
1)
#4
0)
#5
b0 ;
b11 C
b111 ?
b100010001 A
b1 *
1)
#6
0)
#7
b10 *
1)
#8
0)
#9
b11 *
1)
#10
0)
#11
b110 :
0.
b0 *
1)
#12
0)
#13
0#
b0 %
b0 >
b0 $
b0 =
b110 ?
b1 B
b0 "
b0 @
b1 *
1)
#14
0)
#15
b1 <
1#
b10100010 %
b10100010 >
1!
b11010010 $
b11010010 =
b1 ;
b111 :
1.
b0 *
b10 "
b10 @
1)
#16
0)
#17
b100 <
b0 ;
b0 C
b111 ?
b1100010001 A
b1 *
1)
#18
0)
#19
b10 *
1)
#20
0)
#21
b11 *
1)
#22
0)
#23
b101 :
0/
b0 *
1)
#24
0)
#25
0#
b0 %
b0 >
0!
b0 $
b0 =
b101 ?
b10 B
b0 "
b0 @
b1 *
1)
#26
0)
#27
b10 <
b10100011 %
b10100011 >
b11010011 $
b11010011 =
b10 ;
1#
b111 :
1/
b0 *
b100 "
b100 @
1)
#28
0)
#29
b100 <
b0 ;
b1 C
b111 ?
b1100010010 A
b1 *
1)
#30
0)
#31
b10 *
1)
#32
0)
#33
b11 *
1)
#34
0)
#35
b11 :
00
b0 *
1)
#36
0)
#37
b0 %
b0 >
b0 $
b0 =
0#
b11 ?
b11 B
b0 "
b0 @
b1 *
1)
#38
0)
#39
1#
b100 ;
b10100001 %
b10100001 >
b11010001 $
b11010001 =
b111 :
10
b0 *
b1 "
b1 @
1)
#40
0)
#41
b0 ;
b10 C
b111 ?
b1100100010 A
b1 *
1)
#42
0)
#43
b10 *
1)
#44
0)
#45
b11 *
1)
#46
0)
#47
b110 :
0.
b0 *
1)
#48
0)
#49
0#
b0 %
b0 >
b0 $
b0 =
b110 ?
b0 B
b0 "
b0 @
b1 *
1)
#50
0)
#51
b1 <
1#
b10100010 %
b10100010 >
1!
b11010010 $
b11010010 =
b1 ;
b111 :
1.
b0 *
b10 "
b10 @
1)
#52
0)
#53
b100 <
b0 ;
b11 C
b111 ?
b1001100010 A
b1 *
1)
#54
0)
#55
b10 *
1)
#56
0)
#57
b11 *
1)
#58
0)
#59
b101 :
0/
b0 *
1)
#60
0)
#61
0#
b0 %
b0 >
0!
b0 $
b0 =
b101 ?
b1 B
b0 "
b0 @
b1 *
1)
#62
0)
#63
b10 <
b10100011 %
b10100011 >
b11010011 $
b11010011 =
b10 ;
1#
b111 :
1/
b0 *
b100 "
b100 @
1)
#64
0)
#65
b100 <
b0 ;
b0 C
b111 ?
b10001100010 A
b1 *
1)
#66
0)
#67
b10 *
1)
#68
0)
#69
b11 *
1)
#70
0)
#71
b11 :
00
b0 *
1)
#72
0)
#73
b0 %
b0 >
b0 $
b0 =
0#
b11 ?
b10 B
b0 "
b0 @
b1 *
1)
#74
0)
#75
1#
b100 ;
b10100001 %
b10100001 >
b11010001 $
b11010001 =
b111 :
10
b0 *
b1 "
b1 @
1)
#76
0)
#77
b0 ;
b1 C
b111 ?
b10001100100 A
b1 *
1)
#78
0)
#79
b10 *
1)
#80
0)
#81
b11 *
1)
#82
0)
#83
b110 :
0.
b0 *
1)
#84
0)
#85
0#
b0 %
b0 >
b0 $
b0 =
b110 ?
b11 B
b0 "
b0 @
b1 *
1)
#86
0)
#87
b1 <
1#
b10100010 %
b10100010 >
1!
b11010010 $
b11010010 =
b1 ;
b111 :
1.
b0 *
b10 "
b10 @
1)
#88
0)
#89
b100 <
b0 ;
b10 C
b111 ?
b10001001100 A
b1 *
1)
#90
0)
#91
b10 *
1)
#92
0)
#93
b11 *
1)
#94
0)
#95
b101 :
0/
b0 *
1)
#96
0)
#97
0#
b0 %
b0 >
0!
b0 $
b0 =
b101 ?
b0 B
b0 "
b0 @
b1 *
1)
#98
0)
#99
b10 <
b10100011 %
b10100011 >
b11010011 $
b11010011 =
b10 ;
1#
b111 :
1/
b0 *
b100 "
b100 @
1)
#100
0)
#101
b100 <
b0 ;
b11 C
b111 ?
b10010001100 A
b1 *
1)
#102
0)
#103
b10 *
1)
#104
0)
#105
b11 *
1)
#106
0)
#107
b11 :
00
b0 *
1)
#108
0)
#109
b0 %
b0 >
b0 $
b0 =
0#
b11 ?
b1 B
b0 "
b0 @
b1 *
1)
#110
0)
#111
1#
b100 ;
b10100001 %
b10100001 >
b11010001 $
b11010001 =
b111 :
10
b0 *
b1 "
b1 @
1)
#112
0)
#113
b0 ;
b0 C
b111 ?
b100010001100 A
b1 *
1)
#114
0)
#115
b10 *
1)
#116
0)
#117
b11 *
1)
#118
0)
#119
b110 :
0.
b0 *
1)
#120
0)
#121
0#
b0 %
b0 >
b0 $
b0 =
b110 ?
b10 B
b0 "
b0 @
b1 *
1)
#122
0)
#123
b1 <
1#
b10100010 %
b10100010 >
1!
b11010010 $
b11010010 =
b1 ;
b111 :
1.
b0 *
b10 "
b10 @
1)
#124
0)
#125
b100 <
b0 ;
b1 C
b111 ?
b100010001001 A
b1 *
1)
#126
0)
#127
b10 *
1)
#128
0)
#129
b11 *
1)
#130
0)
#131
b101 :
0/
b0 *
1)
#132
0)
#133
0#
b0 %
b0 >
0!
b0 $
b0 =
b101 ?
b11 B
b0 "
b0 @
b1 *
1)
#134
0)
#135
b10 <
b10100011 %
b10100011 >
b11010011 $
b11010011 =
b10 ;
1#
b111 :
1/
b0 *
b100 "
b100 @
1)
#136
0)
#137
b100 <
b0 ;
b10 C
b111 ?
b100010010001 A
b1 *
1)
#138
0)
#139
b10 *
1)
#140
0)
#141
b11 *
1)
#142
0)
#143
b11 :
00
b0 *
1)
#144
0)
#145
b0 %
b0 >
b0 $
b0 =
0#
b11 ?
b0 B
b0 "
b0 @
b1 *
1)
#146
0)
#147
1#
b100 ;
b10100001 %
b10100001 >
b11010001 $
b11010001 =
b111 :
10
b0 *
b1 "
b1 @
1)
#148
0)
#149
b0 ;
b11 C
b111 ?
b100100010001 A
b1 *
1)
#150
0)
#151
b10 *
1)
#152
0)
#153
b11 *
1)
#154
0)
#155
b110 :
0.
b0 *
1)
#156
0)
#157
0#
b0 %
b0 >
b0 $
b0 =
b110 ?
b1 B
b0 "
b0 @
b1 *
1)
#158
0)
#159
b1 <
1#
b10100010 %
b10100010 >
1!
b11010010 $
b11010010 =
b1 ;
b111 :
1.
b0 *
b10 "
b10 @
1)
#160
0)
#161
b100 <
b0 ;
b0 C
b111 ?
b1100010001 A
b1 *
1)
#162
0)
#163
b10 *
1)
#164
0)
#165
b11 *
1)
#166
0)
#167
b101 :
0/
b0 *
1)
#168
0)
#169
0#
b0 %
b0 >
0!
b0 $
b0 =
b101 ?
b10 B
b0 "
b0 @
b1 *
1)
#170
0)
#171
b10 <
b10100011 %
b10100011 >
b11010011 $
b11010011 =
b10 ;
1#
b111 :
1/
b0 *
b100 "
b100 @
1)
#172
0)
#173
b100 <
b0 ;
b1 C
b111 ?
b1100010010 A
b1 *
1)
#174
0)
#175
b10 *
1)
#176
0)
#177
b11 *
1)
#178
0)
#179
b11 :
00
b0 *
1)
#180
0)
#181
b0 %
b0 >
b0 $
b0 =
0#
b11 ?
b11 B
b0 "
b0 @
b1 *
1)
#182
0)
#183
1#
b100 ;
b10100001 %
b10100001 >
b11010001 $
b11010001 =
b111 :
10
b0 *
b1 "
b1 @
1)
#184
0)
#185
b0 ;
b10 C
b111 ?
b1100100010 A
b1 *
1)
#186
0)
#187
b10 *
1)
#188
0)
#189
b11 *
1)
#190
0)
#191
b110 :
0.
b0 *
1)
#192
0)
#193
0#
b0 %
b0 >
b0 $
b0 =
b110 ?
b0 B
b0 "
b0 @
b1 *
1)
#194
0)
#195
b1 <
1#
b10100010 %
b10100010 >
1!
b11010010 $
b11010010 =
b1 ;
b111 :
1.
b0 *
b10 "
b10 @
1)
#196
0)
#197
b100 <
b0 ;
b11 C
b111 ?
b1001100010 A
b1 *
1)
#198
0)
#199
b10 *
1)
#200
0)
#201
b11 *
1)
#202
0)
#203
b101 :
0/
b0 *
1)
#204
0)
#205
0#
b0 %
b0 >
0!
b0 $
b0 =
b101 ?
b1 B
b0 "
b0 @
b1 *
1)
#206
0)
#207
b10 <
b10100011 %
b10100011 >
b11010011 $
b11010011 =
b10 ;
1#
b111 :
1/
b0 *
b100 "
b100 @
1)
#208
0)
#209
b100 <
b0 ;
b0 C
b111 ?
b10001100010 A
b1 *
1)
#210
0)
#211
b10 *
1)
#212
0)
#213
b11 *
1)
#214
0)
#215
b11 :
00
b0 *
1)
#216
0)
#217
b0 %
b0 >
b0 $
b0 =
0#
b11 ?
b10 B
b0 "
b0 @
b1 *
1)
#218
0)
#219
1#
b100 ;
b10100001 %
b10100001 >
b11010001 $
b11010001 =
b111 :
10
b0 *
b1 "
b1 @
1)
#220
0)
#221
b0 ;
b1 C
b111 ?
b10001100100 A
b1 *
1)
#222
0)
#223
b10 *
1)
#224
0)
#225
b11 *
1)
#226
0)
#227
b110 :
0.
b0 *
1)
#228
0)
#229
0#
b0 %
b0 >
b0 $
b0 =
b110 ?
b11 B
b0 "
b0 @
b1 *
1)
#230
0)
#231
b1 <
1#
b10100010 %
b10100010 >
1!
b11010010 $
b11010010 =
b1 ;
b111 :
1.
b0 *
b10 "
b10 @
1)
#232
0)
#233
b100 <
b0 ;
b10 C
b111 ?
b10001001100 A
b1 *
1)
#234
0)
#235
b10 *
1)
#236
0)
#237
b11 *
1)
#238
0)
#239
b101 :
0/
b0 *
1)
#240
0)
#241
0#
b0 %
b0 >
0!
b0 $
b0 =
b101 ?
b0 B
b0 "
b0 @
b1 *
1)
#242
0)
#243
b10 <
b10100011 %
b10100011 >
b11010011 $
b11010011 =
b10 ;
1#
b111 :
1/
b0 *
b100 "
b100 @
1)
#244
0)
#245
b100 <
b0 ;
b11 C
b111 ?
b10010001100 A
b1 *
1)
#246
0)
#247
b10 *
1)
#248
0)
#249
b11 *
1)
#250
0)
#251
b11 :
00
b0 *
1)
#252
0)
#253
b0 %
b0 >
b0 $
b0 =
0#
b11 ?
b1 B
b0 "
b0 @
b1 *
1)
#254
0)
#255
1#
b100 ;
b10100001 %
b10100001 >
b11010001 $
b11010001 =
b111 :
10
b0 *
b1 "
b1 @
1)
#256
0)
#257
b0 ;
b0 C
b111 ?
b100010001100 A
b1 *
1)
#258
0)
#259
b10 *
1)
#260
0)
#261
b11 *
1)
#262
0)
#263
b110 :
0.
b0 *
1)
#264
0)
#265
0#
b0 %
b0 >
b0 $
b0 =
b110 ?
b10 B
b0 "
b0 @
b1 *
1)
#266
0)
#267
b1 <
1#
b10100010 %
b10100010 >
1!
b11010010 $
b11010010 =
b1 ;
b111 :
1.
b0 *
b10 "
b10 @
1)
#268
0)
#269
b100 <
b0 ;
b1 C
b111 ?
b100010001001 A
b1 *
1)
#270
0)
#271
b10 *
1)
#272
0)
#273
b11 *
1)
#274
0)
#275
b101 :
0/
b0 *
1)
#276
0)
#277
0#
b0 %
b0 >
0!
b0 $
b0 =
b101 ?
b11 B
b0 "
b0 @
b1 *
1)
#278
0)
#279
b10 <
b10100011 %
b10100011 >
b11010011 $
b11010011 =
b10 ;
1#
b111 :
1/
b0 *
b100 "
b100 @
1)
#280
0)
#281
b100 <
b0 ;
b10 C
b111 ?
b100010010001 A
b1 *
1)
#282
0)
#283
b10 *
1)
#284
0)
#285
b11 *
1)
#286
0)
#287
b11 :
00
b0 *
1)
#288
0)
#289
b0 %
b0 >
b0 $
b0 =
0#
b11 ?
b0 B
b0 "
b0 @
b1 *
1)
#290
0)
#291
1#
b100 ;
b10100001 %
b10100001 >
b11010001 $
b11010001 =
b111 :
10
b0 *
b1 "
b1 @
1)
#292
0)
#293
b0 ;
b11 C
b111 ?
b100100010001 A
b1 *
1)
#294
0)
#295
b10 *
1)
#296
0)
#297
b11 *
1)
#298
0)
#299
b110 :
0.
b0 *
1)
#300
0)
#301
0#
b0 %
b0 >
b0 $
b0 =
b110 ?
b1 B
b0 "
b0 @
b1 *
1)
#302
0)
#303
b1 <
1#
b10100010 %
b10100010 >
1!
b11010010 $
b11010010 =
b1 ;
b111 :
1.
b0 *
b10 "
b10 @
1)
#304
0)
#305
b100 <
b0 ;
b0 C
b111 ?
b1100010001 A
b1 *
1)
#306
0)
#307
b10 *
1)
#308
0)
#309
b11 *
1)
#310
0)
#311
b101 :
0/
b0 *
1)
#312
0)
#313
0#
b0 %
b0 >
0!
b0 $
b0 =
b101 ?
b10 B
b0 "
b0 @
b1 *
1)
#314
0)
#315
b10 <
b10100011 %
b10100011 >
b11010011 $
b11010011 =
b10 ;
1#
b111 :
1/
b0 *
b100 "
b100 @
1)
#316
0)
#317
b100 <
b0 ;
b1 C
b111 ?
b1100010010 A
b1 *
1)
#318
0)
#319
b10 *
1)
#320
0)
#321
b11 *
1)
#322
0)
#323
b11 :
00
b0 *
1)
#324
0)
#325
b0 %
b0 >
b0 $
b0 =
0#
b11 ?
b11 B
b0 "
b0 @
b1 *
1)
#326
0)
#327
1#
b100 ;
b10100001 %
b10100001 >
b11010001 $
b11010001 =
b111 :
10
b0 *
b1 "
b1 @
1)
#328
0)
#329
b0 ;
b10 C
b111 ?
b1100100010 A
b1 *
1)
#330
0)
#331
b10 *
1)
#332
0)
#333
b11 *
1)
#334
0)
#335
b110 :
0.
b0 *
1)
#336
0)
#337
0#
b0 %
b0 >
b0 $
b0 =
b110 ?
b0 B
b0 "
b0 @
b1 *
1)
#338
0)
#339
b1 <
1#
b10100010 %
b10100010 >
1!
b11010010 $
b11010010 =
b1 ;
b111 :
1.
b0 *
b10 "
b10 @
1)
#340
0)
#341
b100 <
b0 ;
b11 C
b111 ?
b1001100010 A
b1 *
1)
#342
0)
#343
b10 *
1)
#344
0)
#345
b11 *
1)
#346
0)
#347
b101 :
0/
b0 *
1)
#348
0)
#349
0#
b0 %
b0 >
0!
b0 $
b0 =
b101 ?
b1 B
b0 "
b0 @
b1 *
1)
#350
0)
#351
b10 <
b10100011 %
b10100011 >
b11010011 $
b11010011 =
b10 ;
1#
b111 :
1/
b0 *
b100 "
b100 @
1)
#352
0)
#353
b100 <
b0 ;
b0 C
b111 ?
b10001100010 A
b1 *
1)
#354
0)
#355
b10 *
1)
#356
0)
#357
b11 *
1)
#358
0)
#359
b11 :
00
b0 *
1)
#360
0)
#361
b0 %
b0 >
b0 $
b0 =
0#
b11 ?
b10 B
b0 "
b0 @
b1 *
1)
#362
0)
#363
1#
b100 ;
b10100001 %
b10100001 >
b11010001 $
b11010001 =
b111 :
10
b0 *
b1 "
b1 @
1)
#364
0)
#365
b0 ;
b1 C
b111 ?
b10001100100 A
b1 *
1)
#366
0)
#367
b10 *
1)
#368
0)
#369
b11 *
1)
#370
0)
#371
b110 :
0.
b0 *
1)
#372
0)
#373
0#
b0 %
b0 >
b0 $
b0 =
b110 ?
b11 B
b0 "
b0 @
b1 *
1)
#374
0)
#375
b1 <
1#
b10100010 %
b10100010 >
1!
b11010010 $
b11010010 =
b1 ;
b111 :
1.
b0 *
b10 "
b10 @
1)
#376
0)
#377
b100 <
b0 ;
b10 C
b111 ?
b10001001100 A
b1 *
1)
#378
0)
#379
b10 *
1)
#380
0)
#381
b11 *
1)
#382
0)
#383
b101 :
0/
b0 *
1)
#384
0)
#385
0#
b0 %
b0 >
0!
b0 $
b0 =
b101 ?
b0 B
b0 "
b0 @
b1 *
1)
#386
0)
#387
b10 <
b10100011 %
b10100011 >
b11010011 $
b11010011 =
b10 ;
1#
b111 :
1/
b0 *
b100 "
b100 @
1)
#388
0)
#389
b100 <
b0 ;
b11 C
b111 ?
b10010001100 A
b1 *
1)
#390
0)
#391
b10 *
1)
#392
0)
#393
b11 *
1)
#394
0)
#395
b11 :
00
b0 *
1)
#396
0)
#397
b0 %
b0 >
b0 $
b0 =
0#
b11 ?
b1 B
b0 "
b0 @
b1 *
1)
#398
0)
#399
1#
b100 ;
b10100001 %
b10100001 >
b11010001 $
b11010001 =
b111 :
10
b0 *
b1 "
b1 @
1)
#400
0)
#401
b0 ;
b0 C
b111 ?
b100010001100 A
b1 *
1)
#402
0)
#403
b10 *
1)
#404
0)
#405
b11 *
1)
#406
0)
#407
b110 :
0.
b0 *
1)
#408
0)
#409
0#
b0 %
b0 >
b0 $
b0 =
b110 ?
b10 B
b0 "
b0 @
b1 *
1)
#410
0)
#411
b1 <
1#
b10100010 %
b10100010 >
1!
b11010010 $
b11010010 =
b1 ;
b111 :
1.
b0 *
b10 "
b10 @
1)
#412
0)
#413
b100 <
b0 ;
b1 C
b111 ?
b100010001001 A
b1 *
1)
#414
0)
#415
b10 *
1)
#416
0)
#417
b11 *
1)
#418
0)
#419
b101 :
0/
b0 *
1)
#420
0)
#421
0#
b0 %
b0 >
0!
b0 $
b0 =
b101 ?
b11 B
b0 "
b0 @
b1 *
1)
#422
0)
#423
b10 <
b10100011 %
b10100011 >
b11010011 $
b11010011 =
b10 ;
1#
b111 :
1/
b0 *
b100 "
b100 @
1)
#424
0)
#425
b100 <
b0 ;
b10 C
b111 ?
b100010010001 A
b1 *
1)
#426
0)
#427
b10 *
1)
#428
0)
#429
b11 *
1)
#430
0)
#431
b11 :
00
b0 *
1)
#432
0)
#433
b0 %
b0 >
b0 $
b0 =
0#
b11 ?
b0 B
b0 "
b0 @
b1 *
1)
#434
0)
#435
1#
b100 ;
b10100001 %
b10100001 >
b11010001 $
b11010001 =
b111 :
10
b0 *
b1 "
b1 @
1)
#436
0)
#437
b0 ;
b11 C
b111 ?
b100100010001 A
b1 *
1)
#438
0)
#439
b10 *
1)
#440
0)
#441
b11 *
1)
#442
0)
#443
b110 :
0.
b0 *
1)
#444
0)
#445
0#
b0 %
b0 >
b0 $
b0 =
b110 ?
b1 B
b0 "
b0 @
b1 *
1)
#446
0)
#447
b1 <
1#
b10100010 %
b10100010 >
1!
b11010010 $
b11010010 =
b1 ;
b111 :
1.
b0 *
b10 "
b10 @
1)
#448
0)
#449
b100 <
b0 ;
b0 C
b111 ?
b1100010001 A
b1 *
1)
#450
0)
#451
b10 *
1)
#452
0)
#453
b11 *
1)
#454
0)
#455
b101 :
0/
b0 *
1)
#456
0)
#457
0#
b0 %
b0 >
0!
b0 $
b0 =
b101 ?
b10 B
b0 "
b0 @
b1 *
1)
#458
0)
#459
b10 <
b10100011 %
b10100011 >
b11010011 $
b11010011 =
b10 ;
1#
b111 :
1/
b0 *
b100 "
b100 @
1)
#460
0)
#461
b100 <
b0 ;
b1 C
b111 ?
b1100010010 A
b1 *
1)
#462
0)
#463
b10 *
1)
#464
0)
#465
b11 *
1)
#466
0)
#467
b11 :
00
b0 *
1)
#468
0)
#469
b0 %
b0 >
b0 $
b0 =
0#
b11 ?
b11 B
b0 "
b0 @
b1 *
1)
#470
0)
#471
1#
b100 ;
b10100001 %
b10100001 >
b11010001 $
b11010001 =
b111 :
10
b0 *
b1 "
b1 @
1)
#472
0)
#473
b0 ;
b10 C
b111 ?
b1100100010 A
b1 *
1)
#474
0)
#475
b10 *
1)
#476
0)
#477
b11 *
1)
#478
0)
#479
b110 :
0.
b0 *
1)
#480
0)
#481
0#
b0 %
b0 >
b0 $
b0 =
b110 ?
b0 B
b0 "
b0 @
b1 *
1)
#482
0)
#483
b1 <
1#
b10100010 %
b10100010 >
1!
b11010010 $
b11010010 =
b1 ;
b111 :
1.
b0 *
b10 "
b10 @
1)
#484
0)
#485
b100 <
b0 ;
b11 C
b111 ?
b1001100010 A
b1 *
1)
#486
0)
#487
b10 *
1)
#488
0)
#489
b11 *
1)
#490
0)
#491
b101 :
0/
b0 *
1)
#492
0)
#493
0#
b0 %
b0 >
0!
b0 $
b0 =
b101 ?
b1 B
b0 "
b0 @
b1 *
1)
#494
0)
#495
b10 <
b10100011 %
b10100011 >
b11010011 $
b11010011 =
b10 ;
1#
b111 :
1/
b0 *
b100 "
b100 @
1)
#496
0)
#497
b100 <
b0 ;
b0 C
b111 ?
b10001100010 A
b1 *
1)
#498
0)
#499
b10 *
1)
#500
0)
#501
b11 *
1)
#502
0)
#503
b11 :
00
b0 *
1)
#504
0)
#505
b0 %
b0 >
b0 $
b0 =
0#
b11 ?
b10 B
b0 "
b0 @
b1 *
1)
#506
0)
#507
1#
b100 ;
b10100001 %
b10100001 >
b11010001 $
b11010001 =
b111 :
10
b0 *
b1 "
b1 @
1)
#508
0)
#509
b0 ;
b1 C
b111 ?
b10001100100 A
b1 *
1)
#510
0)
#511
b10 *
1)
#512
0)
#513
b11 *
1)
#514
0)
#515
b110 :
0.
b0 *
1)
#516
0)
#517
0#
b0 %
b0 >
b0 $
b0 =
b110 ?
b11 B
b0 "
b0 @
b1 *
1)
#518
0)
#519
b1 <
1#
b10100010 %
b10100010 >
1!
b11010010 $
b11010010 =
b1 ;
b111 :
1.
b0 *
b10 "
b10 @
1)
#520
0)
#521
b100 <
b0 ;
b10 C
b111 ?
b10001001100 A
b1 *
1)
#522
0)
#523
b10 *
1)
#524
0)
#525
b11 *
1)
#526
0)
#527
b101 :
0/
b0 *
1)
#528
0)
#529
0#
b0 %
b0 >
0!
b0 $
b0 =
b101 ?
b0 B
b0 "
b0 @
b1 *
1)
#530
0)
#531
b10 <
b10100011 %
b10100011 >
b11010011 $
b11010011 =
b10 ;
1#
b111 :
1/
b0 *
b100 "
b100 @
1)
#532
0)
#533
b100 <
b0 ;
b11 C
b111 ?
b10010001100 A
b1 *
1)
#534
0)
#535
b10 *
1)
#536
0)
#537
b11 *
1)
#538
0)
#539
b11 :
00
b0 *
1)
#540
0)
#541
b0 %
b0 >
b0 $
b0 =
0#
b11 ?
b1 B
b0 "
b0 @
b1 *
1)
#542
0)
#543
1#
b100 ;
b10100001 %
b10100001 >
b11010001 $
b11010001 =
b111 :
10
b0 *
b1 "
b1 @
1)
#544
0)
#545
b0 ;
b0 C
b111 ?
b100010001100 A
b1 *
1)
#546
0)
#547
b10 *
1)
#548
0)
#549
b11 *
1)
#550
0)
#551
b110 :
0.
b0 *
1)
#552
0)
#553
0#
b0 %
b0 >
b0 $
b0 =
b110 ?
b10 B
b0 "
b0 @
b1 *
1)
#554
0)
#555
b1 <
1#
b10100010 %
b10100010 >
1!
b11010010 $
b11010010 =
b1 ;
b111 :
1.
b0 *
b10 "
b10 @
1)
#556
0)
#557
b100 <
b0 ;
b1 C
b111 ?
b100010001001 A
b1 *
1)
#558
0)
#559
b10 *
1)
#560
0)
#561
b11 *
1)
#562
0)
#563
b101 :
0/
b0 *
1)
#564
0)
#565
0#
b0 %
b0 >
0!
b0 $
b0 =
b101 ?
b11 B
b0 "
b0 @
b1 *
1)
#566
0)
#567
b10 <
b10100011 %
b10100011 >
b11010011 $
b11010011 =
b10 ;
1#
b111 :
1/
b0 *
b100 "
b100 @
1)
#568
0)
#569
b100 <
b0 ;
b10 C
b111 ?
b100010010001 A
b1 *
1)
#570
0)
#571
b10 *
1)
#572
0)
#573
b11 *
1)
#574
0)
#575
b11 :
00
b0 *
1)
#576
0)
#577
b0 %
b0 >
b0 $
b0 =
0#
b11 ?
b0 B
b0 "
b0 @
b1 *
1)
#578
0)
#579
1#
b100 ;
b10100001 %
b10100001 >
b11010001 $
b11010001 =
b111 :
10
b0 *
b1 "
b1 @
1)
#580
0)
#581
b0 ;
b11 C
b111 ?
b100100010001 A
b1 *
1)
#582
0)
#583
b10 *
1)
#584
0)
#585
b11 *
1)
#586
0)
#587
b110 :
0.
b0 *
1)
#588
0)
#589
0#
b0 %
b0 >
b0 $
b0 =
b110 ?
b1 B
b0 "
b0 @
b1 *
1)
#590
0)
#591
b1 <
1#
b10100010 %
b10100010 >
1!
b11010010 $
b11010010 =
b1 ;
b111 :
1.
b0 *
b10 "
b10 @
1)
#592
0)
#593
b100 <
b0 ;
b0 C
b111 ?
b1100010001 A
b1 *
1)
#594
0)
#595
b10 *
1)
#596
0)
#597
b11 *
1)
#598
0)
#599
b101 :
0/
b0 *
1)
#600
0)
#601
0#
b0 %
b0 >
0!
b0 $
b0 =
b101 ?
b10 B
b0 "
b0 @
b1 *
1)
#602
0)
#603
b10 <
b10100011 %
b10100011 >
b11010011 $
b11010011 =
b10 ;
1#
b111 :
1/
b0 *
b100 "
b100 @
1)
#604
0)
#605
b100 <
b0 ;
b1 C
b111 ?
b1100010010 A
b1 *
1)
#606
0)
#607
b10 *
1)
#608
0)
#609
b11 *
1)
#610
0)
#611
b11 :
00
b0 *
1)
#612
0)
#613
b0 %
b0 >
b0 $
b0 =
0#
b11 ?
b11 B
b0 "
b0 @
b1 *
1)
#614
0)
#615
1#
b100 ;
b10100001 %
b10100001 >
b11010001 $
b11010001 =
b111 :
10
b0 *
b1 "
b1 @
1)
#616
0)
#617
b0 ;
b10 C
b111 ?
b1100100010 A
b1 *
1)
#618
0)
#619
b10 *
1)
#620
0)
#621
b11 *
1)
#622
0)
#623
b110 :
0.
b0 *
1)
#624
0)
#625
0#
b0 %
b0 >
b0 $
b0 =
b110 ?
b0 B
b0 "
b0 @
b1 *
1)
#626
0)
#627
b1 <
1#
b10100010 %
b10100010 >
1!
b11010010 $
b11010010 =
b1 ;
b111 :
1.
b0 *
b10 "
b10 @
1)
#628
0)
#629
b100 <
b0 ;
b11 C
b111 ?
b1001100010 A
b1 *
1)
#630
0)
#631
b10 *
1)
#632
0)
#633
b11 *
1)
#634
0)
#635
b101 :
0/
b0 *
1)
#636
0)
#637
0#
b0 %
b0 >
0!
b0 $
b0 =
b101 ?
b1 B
b0 "
b0 @
b1 *
1)
#638
0)
#639
b10 <
b10100011 %
b10100011 >
b11010011 $
b11010011 =
b10 ;
1#
b111 :
1/
b0 *
b100 "
b100 @
1)
#640
0)
#641
b100 <
b0 ;
b0 C
b111 ?
b10001100010 A
b1 *
1)
#642
0)
#643
b10 *
1)
#644
0)
#645
b11 *
1)
#646
0)
#647
b11 :
00
b0 *
1)
#648
0)
#649
b0 %
b0 >
b0 $
b0 =
0#
b11 ?
b10 B
b0 "
b0 @
b1 *
1)
#650
0)
#651
1#
b100 ;
b10100001 %
b10100001 >
b11010001 $
b11010001 =
b111 :
10
b0 *
b1 "
b1 @
1)
#652
0)
#653
b0 ;
b1 C
b111 ?
b10001100100 A
b1 *
1)
#654
0)
#655
b10 *
1)
#656
0)
#657
b11 *
1)
#658
0)
#659
b110 :
0.
b0 *
1)
#660
0)
#661
0#
b0 %
b0 >
b0 $
b0 =
b110 ?
b11 B
b0 "
b0 @
b1 *
1)
#662
0)
#663
b1 <
1#
b10100010 %
b10100010 >
1!
b11010010 $
b11010010 =
b1 ;
b111 :
1.
b0 *
b10 "
b10 @
1)
#664
0)
#665
b100 <
b0 ;
b10 C
b111 ?
b10001001100 A
b1 *
1)
#666
0)
#667
b10 *
1)
#668
0)
#669
b11 *
1)
#670
0)
#671
b101 :
0/
b0 *
1)
#672
0)
#673
0#
b0 %
b0 >
0!
b0 $
b0 =
b101 ?
b0 B
b0 "
b0 @
b1 *
1)
#674
0)
#675
b10 <
b10100011 %
b10100011 >
b11010011 $
b11010011 =
b10 ;
1#
b111 :
1/
b0 *
b100 "
b100 @
1)
#676
0)
#677
b100 <
b0 ;
b11 C
b111 ?
b10010001100 A
b1 *
1)
#678
0)
#679
b10 *
1)
#680
0)
#681
b11 *
1)
#682
0)
#683
b11 :
00
b0 *
1)
#684
0)
#685
b0 %
b0 >
b0 $
b0 =
0#
b11 ?
b1 B
b0 "
b0 @
b1 *
1)
#686
0)
#687
1#
b100 ;
b10100001 %
b10100001 >
b11010001 $
b11010001 =
b111 :
10
b0 *
b1 "
b1 @
1)
#688
0)
